input size: 10000
0.005
0.005
0.003
0.003
0.002
0.003
0.003
0.002
0.003
0.003
Average: 0.0032

input size: 20000
0.005
0.005
0.005
0.005
0.004
0.005
0.004
0.004
0.004
0.004
Average: 0.0045

input size: 30000
0.006
0.006
0.007
0.007
0.007
0.007
0.007
0.006
0.006
0.006
Average: 0.0065

input size: 40000
0.009
0.01
0.009
0.009
0.009
0.01
0.009
0.01
0.009
0.009
Average: 0.0093

input size: 50000
0.012
0.012
0.012
0.012
0.012
0.012
0.012
0.012
0.012
0.012
Average: 0.012

input size: 60000
0.015
0.015
0.015
0.014
0.014
0.014
0.015
0.014
0.014
0.015
Average: 0.0145

input size: 70000
0.017
0.017
0.017
0.017
0.017
0.017
0.017
0.017
0.017
0.017
Average: 0.017

input size: 80000
0.02
0.02
0.021
0.019
0.019
0.02
0.019
0.02
0.019
0.019
Average: 0.0196

input size: 90000
0.022
0.022
0.022
0.022
0.022
0.022
0.022
0.023
0.023
0.022
Average: 0.0222

input size: 100000
0.026
0.026
0.025
0.026
0.025
0.025
0.025
0.025
0.025
0.026
Average: 0.0254

0.0032
0.0045
0.0065
0.0093
0.012
0.0145
0.017
0.0196
0.0222
0.0254
