input size: 10
0
0
0
0
0
0
0
0
0
0
Average: 0

input size: 20
0
0
0
0
0
0
0
0
0
0
Average: 0

input size: 30
0
0
0
0
0
0
0
0
0
0
Average: 0

input size: 40
0
0
0
0
0
0
0
0
0
0
Average: 0

input size: 50
0
0
0
0
0
0
0
0
0
0
Average: 0

input size: 60
0
0
0
0
0
0
0
0
0
0
Average: 0

input size: 70
0
0
0
0
0
0
0
0
0
0
Average: 0

input size: 80
0
0
0
0
0
0
0
0
0
0
Average: 0

input size: 90
0
0
0
0
0
0
0
0
0
0
Average: 0

input size: 100
0
0
0
0
0
0
0
0
0
0
Average: 0

0
0
0
0
0
0
0
0
0
0
